…
---

## Tibbles

A tibble is a lot like a dataframe:

```{R}
> library(tibble)
> tibble::as_tibble(iris)

# A tibble: 150 x 5
   Sepal.Length Sepal.Width Petal.Length
          <dbl>       <dbl>        <dbl>
 1          5.1         3.5          1.4
 2          4.9         3.0          1.4
 3          4.7         3.2          1.3
 4          4.6         3.1          1.5
 5          5.0         3.6          1.4
# ... with 145 more rows
```
…
